%YAML 1.1
%TAG !u! tag:unity3d.com,2011:
--- !u!1 &2196415087025742863
GameObject:
  m_ObjectHideFlags: 0
  m_CorrespondingSourceObject: {fileID: 0}
  m_PrefabInstance: {fileID: 0}
  m_PrefabAsset: {fileID: 0}
  serializedVersion: 6
  m_Component:
  - component: {fileID: 2196415087025742897}
  - component: {fileID: 2196415087025742862}
  m_Layer: 0
  m_Name: Ads
  m_TagString: Untagged
  m_Icon: {fileID: 0}
  m_NavMeshLayer: 0
  m_StaticEditorFlags: 0
  m_IsActive: 1
--- !u!4 &2196415087025742897
Transform:
  m_ObjectHideFlags: 0
  m_CorrespondingSourceObject: {fileID: 0}
  m_PrefabInstance: {fileID: 0}
  m_PrefabAsset: {fileID: 0}
  m_GameObject: {fileID: 2196415087025742863}
  m_LocalRotation: {x: 0, y: 0, z: 0, w: 1}
  m_LocalPosition: {x: 0, y: 0, z: 0}
  m_LocalScale: {x: 1, y: 1, z: 1}
  m_Children: []
  m_Father: {fileID: 0}
  m_RootOrder: 0
  m_LocalEulerAnglesHint: {x: 0, y: 0, z: 0}
--- !u!114 &2196415087025742862
MonoBehaviour:
  m_ObjectHideFlags: 0
  m_CorrespondingSourceObject: {fileID: 0}
  m_PrefabInstance: {fileID: 0}
  m_PrefabAsset: {fileID: 0}
  m_GameObject: {fileID: 2196415087025742863}
  m_Enabled: 1
  m_EditorHideFlags: 0
  m_Script: {fileID: 11500000, guid: 6e098affe06fdd243b789eec966e80c3, type: 3}
  m_Name: 
  m_EditorClassIdentifier: 
  bannerType: 1
  ID_BANNER: 
  ID_FULL: 
  ID_REWARD: 
  ID_UNITY_ADS: 
  ID_MORE: 
  ID_APP: ca-app-pub-3940256099942544~3347511713
  isUseAdmob: 1
  isUseIAR: 0
  isUseUnityAds: 1
  isUseFireBase: 0
  isStartBanner: 1
  isUsingTestAds: 1
  isAutoShowBannerAfterCloseAds: 1
  timeToAutoShow: 20
  timeToReshowFull: 30
  forChildren: 0
  underAgeOfConsent: 0
